…
### Iteration

``` r
p_fun <- function(x){
p.test <- prop.test(x$unsolved_homicide,x$total_homicide) 
broom::tidy(p.test)[,c(1,5,6)]
}

df_all_prop <- nest(df_total_unsolved,total_homicide:unsolved_homicide) %>% 
     mutate(prop_result=map(data,p_fun)) %>% 
     unnest()
as.tibble(df_all_prop)
```

    ## # A tibble: 50 x 6
    ##    city_state  total_homicide unsolved_homici… estimate conf.low conf.high
    ##    <chr>                <int>            <int>    <dbl>    <dbl>     <dbl>
    ##  1 Albuquerqu…            378              146    0.386    0.337     0.438
    ##  2 Atlanta,GA             973              373    0.383    0.353     0.415
    ##  3 Baltimore,…           2827             1825    0.646    0.628     0.663
    ##  4 Baton Roug…            424              196    0.462    0.414     0.511
    ##  5 Birmingham…            800              347    0.434    0.399     0.469
    ##  6 Boston,MA              614              310    0.505    0.465     0.545
    ##  7 Buffalo,NY             521              319    0.612    0.569     0.654
    ##  8 Charlotte,…            687              206    0.300    0.266     0.336
    ##  9 Chicago,IL            5535             4073    0.736    0.724     0.747
    ## 10 Cincinnati…            694              309    0.445    0.408     0.483
    ## # ... with 40 more rows
…
